{
  "variables": {
    "aws_access_key": "",
    "aws_secret_key": "",
    "aws_subnet_id": null,
    "aws_vpc_id": null,
    "aws_region": null,
    "aws_ssh_username": "ubuntu",
    "aws_instance_type": null,
    "name": "golden-ubuntu-18.04",
    "aws_associate_public_ip_address": "true",
    "aws_ena_support": "false",
    "namespace": null,
    "platform" : "ubuntu",
    "platform_version": "18.04",
    "build_host": "",
    "repository": "",
    "packer_directory_path": null
  },
  "builders": [{
    "type": "amazon-ebs",
    "access_key": "{{user `aws_access_key`}}",
    "secret_key": "{{user `aws_secret_key`}}",
    "subnet_id": "{{user `aws_subnet_id`}}",
    "vpc_id": "{{user `aws_vpc_id`}}",
    "region": "{{user `aws_region`}}",
    "ssh_username": "{{ user `aws_ssh_username`}}",
    "ssh_pty": true,
    "instance_type": "{{user `aws_instance_type`}}",
    "source_ami_filter": {
      "filters": {
        "virtualization-type": "hvm",
        "name": "ubuntu/images/*ubuntu-bionic-18.04-amd64-server-*",
        "root-device-type": "ebs"
      },
      "owners": ["099720109477"],
      "most_recent": true
    },
    "ami_name": "{{user `namespace`}}-{{user `stage`}}-{{user `name`}}-ami ({{ isotime \"2006-01-02 15-04-05\" }})",
    "associate_public_ip_address": "{{user `aws_associate_public_ip_address`}}",
    "ena_support": "{{user `aws_ena_support`}}",
    "tags": {
      "Architecture" : "x86_64",
      "BuildAt": "{{user `build_host`}}",
      "BuildInfoURL": "{{user `build_info_url`}}",
      "CreationDate" : "{{ isotime \"2006-01-02 15-04-05\" }}",
      "Environment": "{{user `environment`}}",
      "Name": "{{user `namespace`}}-{{user `stage`}}-{{user `name`}}-ami",
      "Namespace" : "{{user `namespace`}}",
      "Office" : "{{user `office`}}",
      "Owner" : "{{user `owner`}}",
      "Platform" : "{{ user `platform` }}",
      "PlatformVersion" : "{{ user `platform_version` }}",
      "VirtualizationType" : "hvm",
      "Image": "Golden"
    },
    "run_tags": {
      "Architecture" : "x86_64",
      "BuildAt": "{{user `build_host`}}",
      "BuildInfoURL": "{{user `build_info_url`}}",
      "CreationDate" : "{{ isotime \"2006-01-02 15-04-05\" }}",
      "Environment": "{{user `environment`}}",
      "Name": "{{user `namespace`}}-{{user `stage`}}-{{user `name`}}-ami",
      "Namespace" : "{{user `namespace`}}",
      "Office" : "{{user `office`}}",
      "Owner" : "{{user `owner`}}",
      "Packer": "true",
      "Platform" : "{{ user `platform` }}",
      "PlatformVersion" : "{{ user `platform_version` }}",
      "VirtualizationType" : "hvm"
    }
  }],
  "provisioners": [
    {
      "type": "file",
      "source": "ansible",
      "destination": "/tmp",
      "direction": "upload"
    },
    {
      "type": "shell",
      "script": "{{user `packer_directory_path`}}/scripts/install-ansible.sh",
      "pause_before": "5s"
    },
    {
      "type": "ansible-local",
      "playbook_file": "{{ user `ansible_directory_path` }}/playbooks/base.yml",
      "galaxy_file" : "{{ user `ansible_directory_path` }}/requirements/base-galaxy.yml",
      "role_paths" : ["{{ user `ansible_directory_path` }}/roles/vault-ssh-helper"]
    }
  ],
  "post-processors": [
    {
      "type": "manifest",
      "output": "manifest-{{ user `name`}}.json",
      "strip_path": true,
      "custom_data": {
        "namespace": "{{ user `namespace` }}",
        "platform" : "{{ user `platform` }}",
        "platform_version": "{{ user `platform_version` }}",
        "build_host": "{{ user `build_host` }}",
        "repository": "{{ user `repository` }}"
      }
    }
  ]
}
